<svg width="306" height="312" viewBox="0 0 306 312" fill="none" xmlns="http://www.w3.org/2000/svg">
<path d="M151.582 76.3C107.282 76.3 71.4824 112.2 71.4824 156.4C71.4824 200.6 107.382 236.5 151.582 236.5C195.882 236.5 231.682 200.6 231.682 156.4C231.682 112.2 195.782 76.3 151.582 76.3ZM151.582 219.3C116.782 219.3 88.6824 191.1 88.6824 156.4C88.6824 121.7 116.882 93.5 151.582 93.5C186.382 93.5 214.482 121.7 214.482 156.4C214.482 191.1 186.282 219.3 151.582 219.3Z" fill="#DADADA"/>
<path d="M187.782 42.1H179.682V20.6C179.682 13.7 174.082 8.2 167.282 8.2H137.982C131.082 8.2 125.582 13.8 125.582 20.6V42.1H117.482V20.6C117.382 9.2 126.582 0 137.982 0H167.182C178.582 0 187.782 9.2 187.782 20.6V42.1Z" fill="#001C3B"/>
<path d="M135.182 14.5H169.982C171.282 14.5 172.282 15.5 172.282 16.8V51.6C172.282 52.9 171.282 53.9 169.982 53.9H135.182C133.882 53.9 132.882 52.9 132.882 51.6V16.8C132.882 15.5 133.882 14.5 135.182 14.5Z" fill="#004FA6"/>
<path d="M71.6101 68.5838L67.5601 75.5987L48.9405 64.8487C42.965 61.3987 35.4018 63.4984 32.0018 69.3874L17.3518 94.7619C13.9018 100.737 16.0016 108.301 21.8905 111.701L40.5101 122.451L36.4601 129.465L17.8405 118.715C7.91784 113.102 4.5504 100.535 10.2504 90.6619L24.8504 65.374C30.5504 55.5013 43.1178 52.1338 52.9905 57.8338L71.6101 68.5838Z" fill="#001C3B"/>
<path d="M21.4078 100.337L38.8078 70.1991C39.4578 69.0732 40.8238 68.7072 41.9497 69.3572L72.0874 86.7572C73.2132 87.4072 73.5792 88.7732 72.9292 89.8991L55.5292 120.037C54.8792 121.163 53.5132 121.529 52.3874 120.879L22.2497 103.479C21.1238 102.829 20.7578 101.463 21.4078 100.337Z" fill="#004FA6"/>
<path d="M36.4596 182.434L40.5097 189.449L21.8901 200.199C15.9145 203.649 13.9514 211.248 17.3514 217.137L32.0014 242.512C35.4514 248.488 43.0511 250.451 48.9401 247.051L67.5597 236.301L71.6097 243.315L52.9901 254.065C43.1674 259.852 30.6 256.485 24.9 246.612L10.3 221.324C4.59998 211.451 7.96741 198.884 17.8401 193.184L36.4596 182.434Z" fill="#001C3B"/>
<path d="M38.8573 241.787L21.4573 211.649C20.8073 210.523 21.1733 209.157 22.2992 208.507L52.4369 191.107C53.5627 190.457 54.9287 190.823 55.5787 191.949L72.9787 222.087C73.6287 223.213 73.2627 224.579 72.1369 225.229L41.9992 242.629C40.8733 243.279 39.5073 242.913 38.8573 241.787Z" fill="#004FA6"/>
<path d="M117.481 269.8L125.581 269.8L125.581 291.3C125.581 298.2 131.181 303.7 137.981 303.7L167.281 303.7C174.181 303.7 179.681 298.1 179.681 291.3L179.681 269.8L187.781 269.8L187.781 291.3C187.881 302.7 178.681 311.9 167.281 311.9L138.081 311.9C126.681 311.9 117.481 302.7 117.481 291.3L117.481 269.8Z" fill="#001C3B"/>
<path d="M170.081 297.4L135.281 297.4C133.981 297.4 132.981 296.4 132.981 295.1L132.981 260.3C132.981 259 133.981 258 135.281 258L170.081 258C171.381 258 172.381 259 172.381 260.3L172.381 295.1C172.381 296.4 171.381 297.4 170.081 297.4Z" fill="#004FA6"/>
<path d="M233.654 243.316L237.704 236.301L256.323 247.051C262.299 250.501 269.862 248.402 273.262 242.513L287.912 217.138C291.362 211.162 289.262 203.599 283.373 200.199L264.754 189.449L268.804 182.435L287.423 193.185C297.346 198.798 300.713 211.365 295.013 221.238L280.413 246.526C274.713 256.399 262.146 259.766 252.273 254.066L233.654 243.316Z" fill="#001C3B"/>
<path d="M283.856 211.563L266.456 241.701C265.806 242.827 264.44 243.193 263.314 242.543L233.176 225.143C232.05 224.493 231.684 223.127 232.334 222.001L249.734 191.863C250.384 190.737 251.75 190.371 252.876 191.021L283.014 208.421C284.14 209.071 284.506 210.437 283.856 211.563Z" fill="#004FA6"/>
<path d="M268.804 129.466L264.754 122.451L283.374 111.701C289.349 108.251 291.312 100.652 287.912 94.7626L273.262 69.3881C269.812 63.4125 262.213 61.4494 256.324 64.8494L237.704 75.5994L233.654 68.5846L252.274 57.8346C262.096 52.048 274.664 55.4154 280.364 65.2881L294.964 90.576C300.664 100.449 297.296 113.016 287.424 118.716L268.804 129.466Z" fill="#001C3B"/>
<path d="M266.406 70.1133L283.806 100.251C284.456 101.377 284.09 102.743 282.964 103.393L252.827 120.793C251.701 121.443 250.335 121.077 249.685 119.951L232.285 89.8133C231.635 88.6874 232.001 87.3214 233.127 86.6714L263.264 69.2714C264.39 68.6214 265.756 68.9874 266.406 70.1133Z" fill="#004FA6"/>
<path d="M151.5 224C188.779 224 219 193.779 219 156.5C219 119.221 188.779 89 151.5 89C114.221 89 84 119.221 84 156.5C84 193.779 114.221 224 151.5 224Z" fill="#DADADA"/>
</svg>
