<svg width="237" height="236" viewBox="0 0 237 236" fill="none" xmlns="http://www.w3.org/2000/svg">
<path d="M153.494 42.1L145.394 42.1L145.394 20.6C145.394 13.7 139.793 8.2 132.993 8.2L103.794 8.2C96.8935 8.2 91.3935 13.8 91.3935 20.6L91.3935 42.1L83.0935 42.1L83.0935 20.6C83.0935 9.2 92.2935 -2.01073e-07 103.694 -4.50227e-07L132.894 -1.08841e-06C144.294 -1.33757e-06 153.493 9.2 153.494 20.6L153.494 42.1Z" fill="#001C3B"/>
<path d="M100.894 14.5L135.694 14.5C136.994 14.5 137.993 15.5 137.993 16.8L137.994 51.6C137.994 52.9 136.994 53.9 135.694 53.9L100.894 53.9C99.5935 53.9 98.5935 52.9 98.5935 51.6L98.5935 16.8C98.5935 15.6 99.5935 14.5 100.894 14.5Z" fill="#004FA6"/>
<path d="M42.4435 82.7502L42.4435 90.8501L20.9435 90.8501C14.0435 90.8501 8.5435 96.4502 8.5435 103.25L8.54351 132.45C8.54351 139.35 14.1435 144.85 20.9435 144.85L42.4435 144.85L42.4435 153.15L20.9435 153.15C9.54351 153.15 0.343506 143.95 0.343505 132.55L0.343505 103.35C0.343505 91.9501 9.54351 82.7502 20.9435 82.7502L42.4435 82.7502Z" fill="#001C3B"/>
<path d="M14.8435 135.35L14.8435 100.55C14.8435 99.2501 15.8435 98.2502 17.1435 98.2502L51.9435 98.2502C53.2435 98.2502 54.2435 99.2501 54.2435 100.55L54.2435 135.35C54.2435 136.65 53.2435 137.65 51.9435 137.65L17.1435 137.65C15.9435 137.65 14.8435 136.65 14.8435 135.35Z" fill="#004FA6"/>
<path d="M83.0934 193.8L91.1934 193.8L91.1934 215.3C91.1934 222.2 96.7934 227.7 103.593 227.7L132.793 227.7C139.693 227.7 145.193 222.1 145.193 215.3L145.193 193.8L153.493 193.8L153.493 215.3C153.493 226.7 144.293 235.9 132.893 235.9L103.693 235.9C92.2934 235.9 83.0934 226.7 83.0934 215.3L83.0934 193.8Z" fill="#001C3B"/>
<path d="M135.693 221.4L100.893 221.4C99.5934 221.4 98.5934 220.4 98.5934 219.1L98.5934 184.3C98.5934 183 99.5934 182 100.893 182L135.693 182C136.993 182 137.993 183 137.993 184.3L137.993 219.1C137.993 220.3 136.993 221.4 135.693 221.4Z" fill="#004FA6"/>
<path d="M194.144 153.15L194.144 145.05L215.644 145.05C222.544 145.05 228.044 139.45 228.044 132.65L228.044 103.45C228.044 96.5501 222.444 91.0501 215.644 91.0501L194.144 91.0501L194.144 82.7501L215.644 82.7501C227.044 82.7501 236.244 91.9501 236.244 103.35L236.244 132.55C236.244 143.95 227.044 153.15 215.644 153.15L194.144 153.15Z" fill="#001C3B"/>
<path d="M221.744 100.55L221.744 135.35C221.744 136.65 220.744 137.65 219.444 137.65L184.644 137.65C183.344 137.65 182.344 136.65 182.344 135.35L182.344 100.55C182.344 99.2501 183.344 98.2501 184.644 98.2501L219.444 98.2501C220.644 98.2501 221.744 99.2501 221.744 100.55Z" fill="#004FA6"/>
<rect x="67" y="67" width="101.8" height="101.8" fill="#DADADA"/>
</svg>
