{
    "/admin/js/app.js": "/admin/js/app.js?id=329e0b913db9f6512b98",
    "/admin/css/app.css": "/admin/css/app.css?id=6bd8e97f188124c86593",
    "/client/css/app.css": "/client/css/app.css?id=9600e527f47179146ddf",
    "/client/js/app.js": "/client/js/app.js?id=1ed04d29487b26b0e190"
}
