{
  "RCONPort": "47564",
  "ServerAdminPassword": "DeltaBravoOmigoZero",
  "MaxPlayers": 220,
  "ReservedPlayerSlots": 20,
  "LaunchArgs": "",
  "SyncServerIP": "",
  "SyncUniqueID": "",
  "SyncPassword": "",
  "ServerType": true,
  "MapName": "Ocean",
  "ExternalFlags": [
    "ServerGameLog",
    "ForceRespawnDinos"
  ]
}