{
  "RCONPort": null,
  "ServerAdminPassword": null,
  "MaxPlayers": 0,
  "ReservedPlayerSlots": 0,
  "LaunchArgs": null,
  "SyncServerIP": null,
  "SyncUniqueID": null,
  "SyncPassword": null,
  "ServerType": true,
  "MapName": null,
  "ExternalFlags": []
}