{
  "RCONPort": "38037",
  "ServerAdminPassword": "DeltaBravoOmigoZero",
  "MaxPlayers": 2,
  "ReservedPlayerSlots": 2,
  "LaunchArgs": "",
  "SyncServerIP": "",
  "SyncUniqueID": "",
  "SyncPassword": "",
  "ServerType": false,
  "MapName": "Ocean",
  "ExternalFlags": [
    "ServerGameLog"
  ]
}