{
  "RCONPort": "38038",
  "ServerAdminPassword": "DeltaBravoOmigoZero",
  "MaxPlayers": 0,
  "ReservedPlayerSlots": 0,
  "LaunchArgs": null,
  "SyncServerIP": null,
  "SyncUniqueID": null,
  "SyncPassword": null,
  "ServerType": false,
  "MapName": "Ocean",
  "ExternalFlags": [
    "ServerGameLog"
  ]
}