{
  "RCONPort": "38912",
  "ServerAdminPassword": "DeltaBravoOmigoZero",
  "MaxPlayers": 50,
  "ReservedPlayerSlots": 0,
  "LaunchArgs": "",
  "SyncServerIP": "",
  "SyncUniqueID": "",
  "SyncPassword": "",
  "ServerType": true,
  "MapName": "Ocean",
  "ExternalFlags": [
    "ServerGameLog",
    "ForceRespawnDinos"
  ]
}